
state={
	id=1
	name="STATE_1" # Corsica
	manpower = 322900
	
	state_category = town

	history={
		owner = FRA
		victory_points = { 3838 1 }
		buildings = {
			infrastructure = 2
			industrial_complex = 1
			air_base = 1
			3838 = {
				naval_base = 3
			}
		}
		add_core_of = FRA
		add_core_of = FRA
	}

	provinces={
		3838 9851 11804 
	}

	local_supplies=0.0 
}
