state={
	id=112
	name="STATE_112"
	resources={
		tungsten= 32 #was: 50.000
	}

	history={
        owner = WST






		buildings = {
			infrastructure = 3
			arms_factory = 2
			industrial_complex = 2
			air_base = 5
			dockyard = 2
			11805 = {
				naval_base = 8
			}
		}
		add_core_of = POR

	}

	provinces={
		799 3798 3861 6924 11805 
	}
	manpower=1995800
	buildings_max_level_factor=1.000
	state_category=city

	local_supplies=12.0 
}
