state={
	id=287
	name="STATE_287"

history={ 1936.1.1.13 = { owner = WST add_core_of = WST }
		owner = CHI
		add_core_of = CHI
		add_core_of = SIK
		add_core_of = SIK
		buildings = {
			infrastructure = 1

		}
		victory_points = {
			4973 1
		}
	}


	provinces={
		4973 8042 8086 10885 10911 12864 
	}
	manpower=408000
	buildings_max_level_factor=1.000
	state_category=wasteland

	local_supplies=4.0 
}
