state={
	id=292
	name="STATE_292"
	

	history={
        owner = WST
		buildings = {
			infrastructure = 1
			arms_factory = 1
			industrial_complex = 1
		}



		add_core_of = SAU

	}

	provinces={
		5024 5093 7995 8004 8060 12727 12813 12870 
	}
	manpower=1000000
	buildings_max_level_factor=1.000
	state_category=rural
	local_supplies=0.000
}
