
state = {
	id = 303
	name = "STATE_303" # Lima
    manpower = 1
	resources = {
		oil = 14 # was: 18
	}
	
	state_category = large_city

	history = {

        owner = WST
		add_core_of = PRU

		buildings = {
			infrastructure = 2
			arms_factory = 1
			industrial_complex = 6
			air_base = 3
			12997 = {
				naval_base = 5
			}
			2156 = {
				naval_base = 1
			}
		}
		








	}

	provinces = {
		2156 2162 5190 8199 12969 12983 12997 
	}

	local_supplies = 0.0 
}
