state=
{
	id=319
	name="STATE_319"
    manpower = 1
	
	state_category = town
	
	resources={
		chromium=1 # was: 1
	}
	history=
	{
        owner = WST
		buildings = {
			infrastructure = 2
			arms_factory = 1
			industrial_complex = 3
			air_base = 1
			7660 = {
				naval_base = 2
			}
		}
		add_core_of = DOM







	}
	provinces={
		4598 7632 7660 10484
	}

	local_supplies=0.0 
}
