state={
	id=322
	name="STATE_322"
	resources={
		tungsten=2.000
	}

	history={
        owner = WST
		buildings = {
			infrastructure = 1
			industrial_complex = 1

		}
		add_core_of = TIB

	}

	provinces={
		2010 2093 4994 5011 7926 8068 10755 10918 
	}
	manpower=1722000
	buildings_max_level_factor=1.000
	state_category=pastoral

	local_supplies=2.0 
}
