
state={
	id=339
	name="STATE_339"
    manpower = 1
	resources={
		chromium=50 # was: 86
	}
	
	state_category = large_town

	history={
        owner = WST
		






		buildings = {
			infrastructure = 2
			industrial_complex = 1
			air_base = 2
			4112 = {
				naval_base = 5
			}
		}
		add_core_of = TUR
	}

	provinces={
		928 3927 4112 6992 7130 9921 9929 10038 11848 11898 
	}

	local_supplies=8.0 
}
