
state={
	id=381
	name="STATE_381"
	manpower = 225564
	state_category = rural
	
history={ 1936.1.1.13 = { owner = WST add_core_of = WST }
		owner = USA
		buildings = {
			infrastructure = 2
		}
		add_core_of = USA
	}

	provinces={
		1815 4610 4723 4794 4820 7688 7814 7888 10640 10711 12561 12633 12651 
	}
	

	local_supplies=0.0 
}
