
state={
	id=453
	name="STATE_453"

	history={
		owner = ENG
		buildings = {
			infrastructure = 1

		}
		victory_points = {
			4161 3 
		}
		victory_points = {
			10099 1 
		}
		add_core_of = SWE

	}

	provinces={
		1112 4161 10002 10099 11922 11979 12073 
	}
	manpower=15359
	buildings_max_level_factor=1.000
	state_category=wasteland
	local_supplies=7.000
}
