
state={
	id=49
	name="STATE_49" # Ankara
    manpower = 1
	resources={
		chromium=11 # was: 16
		steel = 28
	}
	
	state_category = town

	history={
        owner = WST









		buildings = {
			infrastructure = 2
			arms_factory = 2
			industrial_complex = 2
			air_base = 3
		}
		add_core_of = TUR
	}

	provinces={
		804 909 3907 3951 6808 6908 6925 9806 9901 11747 11784 
	}

	local_supplies=7.0 
}
