
state={
	id=493
	name="STATE_493"
    manpower = 1
	resources={
		oil=15 # was: 20
	}
	
	state_category = town

	history={
        owner = WST
		buildings = {
			infrastructure = 2
			industrial_complex = 2
			air_base = 4
			12790 = {
				naval_base = 5
			}
			8056 = {
				naval_base = 1
			}
		}
		add_core_of = COL







	}

	provinces={
		1937 2023 2085 4969 8056 10494 10864 12703 12790 12845 12872 
	}

	local_supplies=0.0 
}
