state = {
	id = 511
	name = "STATE_511" # Mendoza
    manpower = 1
	
	state_category = rural

	history = {

        owner = WST
		add_core_of = ARG

		buildings = {
			infrastructure = 2
			industrial_complex = 1
			air_base = 1
		}





	}

	provinces = {
		2179 2215 8215 10964 10992  
	}

	local_supplies = 0.0 
}
