state= {
	id=537
	name="STATE_537"
	manpower = 295196
	resources={
		oil=3 # was: 4
	}
	
	state_category = rural

history={ 1936.1.1.13 = { owner = WST add_core_of = WST }
		owner = JAP
		add_core_of = JAP
		
		buildings = {
			infrastructure = 2
			12446 = {
				naval_base = 1

			}
		}
		victory_points = {
			12446 1
		}

	}
	provinces=
	{
1322 1820 12446 	}

	local_supplies=0.0 
}
