
state={
	id=547
	name="STATE_547"
	manpower = 1085440
	state_category=rural

	history={
		owner = ENG
		buildings = {
			infrastructure = 2
			industrial_complex = 1
			
		}
		victory_points = {
			1939 2 
		}
		
		add_core_of = SWE

	}

	provinces={
		1939 2066 5079 10962 13135 
	}
	buildings_max_level_factor=1.000
	
	local_supplies=6.000
}
