state={
	id=587
	name="STATE_587"

	history={
		owner = SOV
		add_core_of = SOV
		buildings = {
			infrastructure = 1
		}
		victory_points = {
			1517 1 
		}
		add_core_of = SOV

	}

	provinces={
		475 642 1517 3593 4523 4620 7641 10262 11701 12163 12383 13008 
	}
	manpower=245133
	buildings_max_level_factor=1.000
	state_category=rural

	local_supplies=0.0 
}
