
state={
	id=610
	name="STATE_610" # Jehol
	manpower = 1975377
	
	state_category = pastoral

history={ 1936.1.1.13 = { owner = WST add_core_of = WST }
		owner = MAN
		add_core_of = MAN
		add_core_of = MAN
		add_core_of = MAN
		buildings = {
			infrastructure = 2
		}

	}

	provinces={
		814 881 934 972 3814 3828 3881 3934 3955 4514 6837 6852 6898 6937 6988 7575 7633 9768 9873 9905 9927 10331 10426 10499 11801 11855 11886 
	}

	local_supplies=0.0 
}
