state={
	id=621
	name="STATE_621"

history={ 1936.1.1.13 = { owner = WST add_core_of = WST }
		owner = CHI
		add_core_of = CHI
		add_core_of = SHX
		add_core_of = SHX
		add_core_of = SHX
		buildings = {
			infrastructure = 1
			industrial_complex = 1

		}
		1939.1.1 = {
			remove_building = {
				type = industrial_complex
				level = 1

			}
			owner = PRC
			controller = MEN

		}

	}

	provinces={
		2087 4525 7048 7158 7631 10424 10629 12331 12403 12609 12880 
	}
	manpower=1583700
	buildings_max_level_factor=1.000
	state_category=pastoral

	local_supplies=4.0 
}
