state=
{
	id=630
	name="STATE_630"
	manpower = 100
	state_category = tiny_island

history={ 1936.1.1.13 = { owner = WST add_core_of = WST }
		owner = USA
		add_core_of = SWE
		buildings = {
			infrastructure = 1
			13051 = {
				naval_base = 1
			}
		}
	}
	
	provinces={
		13051 	
	}

	local_supplies=0.0 
}
