state=
{
	id=638
	name="STATE_638"
	state_category = small_island
	manpower=75153
	history=
{ 1936.1.1.13 = { owner = WST add_core_of = WST }
		owner = USA
		add_core_of = SWE
		buildings = {
			infrastructure = 3 #was: 5
			12140 = {
				naval_base = 1
			}
		}
		victory_points = {
			12140 1
		 }

	}
	provinces={
		12140
	}

	local_supplies=0.0 
}
