state = {
	id = 649
	name = "STATE_649"
	state_category = tiny_island
    manpower = 1

	history = {

        owner = WST
		add_core_of = ECU

		buildings = {
			infrastructure = 1
			5023 = {
				naval_base = 1
			}
		}




		
	}

	provinces = { 5023 }

	local_supplies = 0.0 
}
