
state={
	id=654
	name="STATE_654" # Gorno-Altaysk
	manpower = 153510
	
	state_category = wasteland

	history={
		owner = SOV
		buildings = {
			infrastructure = 1
		}
		add_core_of = SOV
		add_core_of = SOV
		victory_points = {
			4800 1 #Oyrot-Tura/Gorno-Altaysk
		}
	}

	provinces={
		4781 4800 10531 10713 12509 
	}

	local_supplies=2.0 
}
