state={
	id=678
	name="STATE_678"

	history={
        owner = WST
		buildings = {
			infrastructure = 0

		}
		add_core_of = SAU

	}

	provinces={
		4932 5081 8118 12740 
	}
	manpower=42
	buildings_max_level_factor=1.000
	state_category=wasteland
	local_supplies=0.000
}
