state={
	id=700
	name="STATE_700"
	manpower = 1768500
	
	state_category = pastoral
	resources = {
		steel = 32
	}
	
	history=
	{
		owner = ENG
		add_core_of = SWE
		victory_points = {
			2038 1 
		}
		buildings = {
			infrastructure = 2
			2038 = {
				naval_base = 3
			}
		}

	}
	
	provinces={
		2038 2094 
	}

	local_supplies=0.0 
}
