state={
	id=706
	name="STATE_706"
	manpower = 186637
	
	state_category = small_island

	history={
		owner = FRA
		add_core_of = SWE
		buildings = {
			infrastructure = 2
			13017 = {
				naval_base = 1
			}
		}
	}

	provinces={
		13017 
	}

	local_supplies=0.0 
}
