
state={
	id=718
	name="STATE_718"
	manpower = 1656749
	state_category=pastoral

	resources = {
		rubber = 3.000
	}

	history={
		owner = BEL
		buildings = {
			infrastructure = 1

		}
		add_core_of = SWE

	}

	provinces={
		1950 2034 2073 2154 6027 11934 12808 12847 
	}
	
	buildings_max_level_factor = 1.000
	
	local_supplies=2.000
}
