state={
	id=738
	name="STATE_738"

history={ 1936.1.1.13 = { owner = WST add_core_of = WST }
		owner = HOL
		add_core_of = SWE
		buildings = {
			infrastructure = 1

			4579 = {
				naval_base = 1

			}


		}

	}

	provinces={
		4579 
	}
	manpower=36146
	buildings_max_level_factor=1	
	state_category="small_island"

	local_supplies=0.0 
}
