state=
{
	id=767
	name="STATE_767" # North Darfur
	manpower = 8143
	
	state_category = wasteland
	impassable = yes
	
	history= {
		add_core_of = SWE
		owner = ENG
		buildings = {
			infrastructure = 0
		}
	}
	provinces={
		7987 8103 10900
	}

	local_supplies=0.0 
}
