state={
	id=784
	name="STATE_784"
	manpower = 517081
	
	state_category = rural
	
	history={
		owner = POL
		victory_points = {
			3320 3
		}
		buildings = {
			infrastructure = 3 #was: 5
			industrial_complex = 1
			air_base = 5
		}
		add_core_of = POL
		add_core_of = POL
	}

	provinces={
		3320 9274 9295 11342
	}

	local_supplies=0.0 
}
