state={
	id=816
	name="STATE_816"
	state_category = town
history={ 1936.1.1.13 = { owner = WST add_core_of = WST }
		owner = USA
		add_core_of = USA
		buildings = {
			industrial_complex = 2
			infrastructure = 3
			air_base = 3
		}
		victory_points = {
			7588 3
		}
	}
	provinces={
		801 3941 3975 4627 6850 6958 6971 7466 7588 7646 9923 10441 11888 
	}
	manpower=1901974
	buildings_max_level_factor=1.000
	state_category = town
}
