state={
	id=818
	name="STATE_818"
	provinces={
		1774 4751 4777 7773 7808 7843 7870 10539 10563 10669 12520 12695 
	}

	history={
        owner = WST
		buildings = {
			infrastructure = 1
		}



		add_core_of = MON
	}
	manpower=149000
	buildings_max_level_factor=1.000
	state_category=pastoral
	local_supplies=0.000
}
