state = {
	id = 828
	name = "STATE_828"
	resources = {
		chromium = 8 # was: 18 before split off from Caucasus mountains (233)
	}

	history = {
		owner = SOV
		buildings = {
			infrastructure = 2

		}
		add_core_of = SOV
		add_core_of = SOV
		victory_points = {
			9628 3
		}
	}

	provinces = {
	  9628 9647 11609 
	}
	manpower = 387990
	buildings_max_level_factor = 1.000
	state_category = rural

	local_supplies = 0.0 
}
