
state={
	id=846
	name="STATE_846"
    manpower = 1
	state_category = town
	resources={
		aluminium=15 # was: 24 
	}
	history={
        owner = WST

		buildings = {
			infrastructure = 2 
			industrial_complex = 1
		}
		add_core_of = SWI
	}
	provinces={
		9600 3641 
	}
	local_supplies=0.0  
}
