
state={
	id=847
	name="STATE_847"
    manpower = 1
	state_category = pastoral
	resources={
	}
	history={
        owner = WST
		buildings = {
			infrastructure = 1 
			industrial_complex = 1
		}
		add_core_of = SWI
	}
	provinces={
		636 9587 3612 9618  
	}
	local_supplies=0.0 
}
