state=
{
	id=853
	name="STATE_853"
	manpower = 333250 # 336279 in 1942 # was 1144300 before Ljubljana split
	
	state_category = large_town
	
	history =
	{
		owner = YUG
		buildings = {
			infrastructure = 3
		}
		victory_points = {
			9627 3 
		}
		add_core_of = YUG
		add_core_of = YUG
	}
	provinces={
		6650 9627
	}
	
	local_supplies=5.0 
}
