state = {
	id = 860
	name = "STATE_860"
	manpower=110000
	state_category = rural
	
	history = {
		owner = CAN
		add_core_of = CAN
		add_core_of = CAN
	}
	
	provinces = {
		7683 7807 7810 10534 10715 12600 13293
	}

	buildings_max_level_factor = 1.000
	local_supplies = 0.000
}
