
state = {
	id = 874
	name = "STATE_874" # Magadan
	manpower = 63481
	state_category = pastoral
	
	history = {
		victory_points = { 
			12683 1 
		}

		owner = SOV
		buildings = {
			infrastructure = 1
		}
		add_core_of = SOV
		add_core_of = SOV
	}

	provinces = {
		1865 10540 12683
	}

	local_supplies = 0.0 
}
