state = {
	id=884
	name = "STATE_884"  # Upper Nile 
	manpower = 1040121
	state_category = pastoral

	history = {
		owner = ENG
		add_core_of = SWE
		buildings = {
			infrastructure = 2

		}

	}

	provinces = {
		2096 10859 10877 12800 
	}

	buildings_max_level_factor = 1.000
	local_supplies = 0.000
}
