state={
	id=902
	name="STATE_902"
	manpower = 332479
	state_category = pastoral

	history={
		owner = ENG
		add_core_of = SWE
		buildings = {
			infrastructure = 1
		}
	}

	provinces={
		1891 1932 1969 2025 4938 4972 8021 
	}
	
	buildings_max_level_factor=1.000
	local_supplies=0.000
}
