
state = {
	id = 946
	name = "STATE_946"
    manpower = 1
	
	state_category = rural
	
	resources = {
		oil = 3 
	}

	history = {

        owner = WST
		add_core_of = URG

		buildings = {
			infrastructure = 1
			arms_factory = 1
		}

	}

	provinces = {
		1613 1626 10502 12440 12468
	}

	local_supplies = 0.0 
}
