state = {
	id = 950
	name = "STATE_950"
    manpower = 1
	
	state_category = town
	
	resources = {
		steel = 24 # Steel + replacement of copper
	}

	history = {

        owner = WST
		add_core_of = CHL

		buildings = {
			infrastructure = 2
			industrial_complex = 2
			5121 = {
				naval_base = 1
			}
			5169 = {
				naval_base = 1
			}
		}
		








	}

	provinces = {
		5121 5169 12920 12954 13297
	}

	local_supplies = 0.0 
}
