state = {
	id = 951
	name = "STATE_951"
    manpower = 1
	
	state_category = rural

	resources = {
		tungsten = 14 # In replacement of Nitrate
	}

	history = {

        owner = WST
		add_core_of = CHL
		add_claim_by = PRU

		buildings = {
			infrastructure = 1
			arms_factory = 1
			air_base = 1
		}
		








	}

	provinces = {
		5131 8217 8231 13303
	}

	local_supplies = 0.0 
}
