state = {
	id = 954
	name = "STATE_954"
    manpower = 1
	
	state_category = rural
	
	resources = {
		oil = 3
	}

	history = {

        owner = WST
		add_core_of = ARG
		add_core_of = WLA

		buildings = {
			infrastructure = 1
		}




		
	}

	provinces = {
		2169 5173 12946 12952 13305
	}

	local_supplies = 0.0 
}
