﻿instant_effect = {
	add_equipment_production = {
		equipment = {
			type = infantry_equipment_0
			creator = "CHI"
		}
		requested_factories = 2
		progress = 0.55
		efficiency = 100
	}
	add_equipment_production = {
		equipment = {
			type = fighter_equipment_0
			creator = "CHI"
		}
		requested_factories = 1
		progress = 0.55
		efficiency = 100
	}	
}
