﻿division_template = {
	name = "Hohei Shidan" 			# (Square) Infantry Division - 4 infantry regiments (3k men each), 1 field artillery regiment - abstracted into infantry,
	division_names_group = JAP_INF_01
									# 1 engineering regiment, 1 recon regiment
	regiments = {
		infantry = { x = 0 y = 0 }
		infantry = { x = 0 y = 1 }
		infantry = { x = 0 y = 2 }
		infantry = { x = 1 y = 0 }
		infantry = { x = 1 y = 1 }
		infantry = { x = 1 y = 2 }
		infantry = { x = 2 y = 0 }
		infantry = { x = 2 y = 1 }
		infantry = { x = 2 y = 2 }
		infantry = { x = 3 y = 0 }
		infantry = { x = 3 y = 1 }
		infantry = { x = 3 y = 2 }
	}
	support = {
		engineer = { x = 0 y = 0 }
		recon = { x = 0 y = 1 }
	}
}
division_template = {
	name = "Dokuritsu Konsei Ryodan" 	# Independent Mixed Brigade: 5 infantry battalions (4k men total), 1 field artillery basttalion - abstracted into infantry,
	division_names_group = JAP_IMB_01
										# 1 engineering battalion
	regiments = {
		infantry = { x = 0 y = 0 }
		infantry = { x = 0 y = 1 }
		infantry = { x = 0 y = 2 }
		infantry = { x = 1 y = 0 }
		infantry = { x = 1 y = 1 }
		light_armor = { x= 2 y = 0 }
		light_armor = { x= 2 y = 1 }
	}
	support = {
		engineer = { x = 0 y = 0 }
	}
}
division_template = {
	name = "Kihei Shidan" 			# Cavalry Division - 2 Cavalry Division regiments (3k men); 1 mounted artillery regiment
	division_names_group = JAP_CAV_01
	regiments = {
		cavalry = { x = 0 y = 0 }
		cavalry = { x = 0 y = 1 }
		cavalry = { x = 0 y = 2 }
		cavalry = { x = 1 y = 0 }
		cavalry = { x = 1 y = 1 }
		cavalry = { x = 1 y = 2 }
	}
}
division_template = {
	name = "Jidousha Shidan" 			# Motorized divisions - 4 motorized infantry regiments (3k men each), 1 recon regiment, 
	division_names_group = JAP_MOT_01
										#1 engineer regiment, 1 mounted artillery regiment
	regiments = {
		motorized = { x = 0 y = 0 }
		motorized = { x = 0 y = 1 }
		motorized = { x = 0 y = 2 }
		motorized = { x = 1 y = 0 }
		motorized = { x = 1 y = 1 }
		motorized = { x = 1 y = 2 }
		motorized = { x = 2 y = 0 }
		motorized = { x = 2 y = 1 }
		motorized = { x = 2 y = 2 }
		motorized = { x = 3 y = 0 }
		motorized = { x = 3 y = 1 }
		motorized = { x = 3 y = 2 }
	}
	support = {
		artillery = { x = 0 y = 0 }
		engineer = { x = 0 y = 1 }
		mot_recon = { x = 0 y = 2 }
	}
}
division_template = {
	name = "Rikusentai"				#This template covers SNLF divisions; historically there were roughly 5 total, with 1 being paratroopers
	division_names_group = JAP_MAR_01
	regiments = {
		marine = { x = 0 y = 0 }
		marine = { x = 0 y = 1 }
		marine = { x = 0 y = 2 }
		marine = { x = 1 y = 0 }
		marine = { x = 1 y = 1 }
		marine = { x = 1 y = 2 }
	}
	support = {
		engineer = { x = 0 y = 0 }
	}	
	priority = 2
}
division_template = {
	name = "Chuton-chi Shidan" 			# Garrison template - represents Imperial Manchukuo Army infantry divisions: 2 infantry regiments (3k men) -- militia (lowest equipment, experience)
	division_names_group = JAP_GAR_01
										# Also represents (over-sized) IJN Base Defense Unit (island, city and naval base garrisons): 2 infantry rgts (3k men), 1 field artillery rgt (abstracted), 1 engineering rgt
	regiments = {
		infantry = { x = 0 y = 0 }
		infantry = { x = 0 y = 1 }
		infantry = { x = 0 y = 2 }
		infantry = { x = 1 y = 0 }
		infantry = { x = 1 y = 1 }
		infantry = { x = 1 y = 2 }
	}
	priority = 0
}

division_template = {
	name = "MP"

	regiments = {
		cavalry = { x = 0 y = 0 }
		cavalry = { x = 0 y = 1 }
		cavalry = { x = 0 y = 2 }
		cavalry = { x = 0 y = 3 }

		cavalry = { x = 1 y = 0 }
		cavalry = { x = 1 y = 1 }
		cavalry = { x = 1 y = 2 }
		cavalry = { x = 1 y = 3 }

		cavalry = { x = 2 y = 0 }
		cavalry = { x = 2 y = 1 }
		cavalry = { x = 2 y = 2 }
		cavalry = { x = 2 y = 3 }

		cavalry = { x = 3 y = 0 }
		cavalry = { x = 3 y = 1 }
		cavalry = { x = 3 y = 2 }
		cavalry = { x = 3 y = 3 }

		cavalry = { x = 4 y = 0 }
		cavalry = { x = 4 y = 1 }
		cavalry = { x = 4 y = 2 }
		cavalry = { x = 4 y = 3 }

	}
	support = {

	}
}

division_template = {
	name = "40W"

	regiments = {
		infantry = { x = 0 y = 0 }
		infantry = { x = 0 y = 1 }
		infantry = { x = 0 y = 2 }
		infantry = { x = 0 y = 3 }

		infantry = { x = 1 y = 0 }
		infantry = { x = 1 y = 1 }
		infantry = { x = 1 y = 2 }
		infantry = { x = 1 y = 3 }

		infantry = { x = 2 y = 0 }
		infantry = { x = 2 y = 1 }
		infantry = { x = 2 y = 2 }
		infantry = { x = 2 y = 3 }

		infantry = { x = 3 y = 0 }
		infantry = { x = 3 y = 1 }
		infantry = { x = 3 y = 2 }
		infantry = { x = 3 y = 3 }

		infantry = { x = 4 y = 0 }
		infantry = { x = 4 y = 1 }
		infantry = { x = 4 y = 2 }
		infantry = { x = 4 y = 3 }

	}
	support = {

	}
}
##### OOB #####
units = {
	division= {
		location = 1182
		division_template = "40W"
		start_experience_factor = 0.3
		start_equipment_factor = 0.01
	}
}


#########################
## STARTING PRODUCTION ##
#########################
instant_effect = 
{
	add_equipment_production = {
		equipment = {
			type = infantry_equipment_1
			creator = "JAP"
		}
		requested_factories = 3
		progress = 0.1
		efficiency = 50
		industrial_manufacturer = mio:JAP_tokyo_arsenal_organization
	}

	add_equipment_production = {
		equipment = {
			type = support_equipment_1
			creator = "JAP" 
		}
		requested_factories = 1
		progress = 0.3
		efficiency = 50
	}

	add_equipment_production = {
		equipment = {
			type = artillery_equipment_1
			creator = "JAP" 
		}
		requested_factories = 1
		progress = 0.4
		efficiency = 50
		industrial_manufacturer = mio:JAP_osaka_army_arsenal_artillery_organization
	}

	add_equipment_production = {
		equipment = {
			type = light_tank_chassis_1
			creator = "JAP" 
			version_name = "Type 95 Ha-Go"
		}
		requested_factories = 1
		progress = 0.4
		efficiency = 50
		industrial_manufacturer = mio:JAP_osaka_army_arsenal_organization
	}
}
