﻿division_template = {
	name = "Pestininku Divizija"			# Infantry Division
	division_names_group = LIT_INF_01
	# Note: Divisions were nowhere near full strength until mobilized
	regiments = {
		infantry = { x = 0 y = 0 }
		infantry = { x = 0 y = 1 }
		infantry = { x = 0 y = 2 }
		infantry = { x = 1 y = 0 }
		infantry = { x = 1 y = 1 }
		infantry = { x = 1 y = 2 }
		infantry = { x = 2 y = 0 }
		infantry = { x = 2 y = 1 }
		infantry = { x = 2 y = 2 }
	}
}

units = {
}

### Starting Production ###
instant_effect = {
	add_equipment_production = {
		equipment = {
			type = infantry_equipment_1
			creator = "LIT"
		}
		requested_factories = 1
		progress = 0.28
		efficiency = 100
	}
}