﻿division_template = {
	name = "District Force"		# Military District Forces (reserve/garrison forces)
	# Note: all forces at reserve levels in 1936

	division_names_group = NZL_MIL_01

	regiments = {
		infantry = { x = 0 y = 0 }
		infantry = { x = 0 y = 1 }
		infantry = { x = 0 y = 2 }
		cavalry = { x = 1 y = 0 }
		cavalry = { x = 1 y = 1 }
		cavalry = { x = 1 y = 2 }
	}
}

division_template = {
	name = "Armoured Division"

	division_names_group = NZL_ARM_01

	regiments = {
		light_armor = { x = 0 y = 0 }
		light_armor = { x = 0 y = 1 }
		cavalry = { x = 1 y = 0 }
		cavalry = { x = 1 y = 1 }
	}
}
division_template = {
	name = "MP"

	regiments = {
		cavalry = { x = 0 y = 0 }
		cavalry = { x = 0 y = 1 }
		cavalry = { x = 0 y = 2 }
		cavalry = { x = 0 y = 3 }

		cavalry = { x = 1 y = 0 }
		cavalry = { x = 1 y = 1 }
		cavalry = { x = 1 y = 2 }
		cavalry = { x = 1 y = 3 }

		cavalry = { x = 2 y = 0 }
		cavalry = { x = 2 y = 1 }
		cavalry = { x = 2 y = 2 }
		cavalry = { x = 2 y = 3 }

		cavalry = { x = 3 y = 0 }
		cavalry = { x = 3 y = 1 }
		cavalry = { x = 3 y = 2 }
		cavalry = { x = 3 y = 3 }

		cavalry = { x = 4 y = 0 }
		cavalry = { x = 4 y = 1 }
		cavalry = { x = 4 y = 2 }
		cavalry = { x = 4 y = 3 }

	}
	support = {

	}
}

division_template = {
	name = "40W"

	regiments = {
		infantry = { x = 0 y = 0 }
		infantry = { x = 0 y = 1 }
		infantry = { x = 0 y = 2 }
		infantry = { x = 0 y = 3 }

		infantry = { x = 1 y = 0 }
		infantry = { x = 1 y = 1 }
		infantry = { x = 1 y = 2 }
		infantry = { x = 1 y = 3 }

		infantry = { x = 2 y = 0 }
		infantry = { x = 2 y = 1 }
		infantry = { x = 2 y = 2 }
		infantry = { x = 2 y = 3 }

		infantry = { x = 3 y = 0 }
		infantry = { x = 3 y = 1 }
		infantry = { x = 3 y = 2 }
		infantry = { x = 3 y = 3 }

		infantry = { x = 4 y = 0 }
		infantry = { x = 4 y = 1 }
		infantry = { x = 4 y = 2 }
		infantry = { x = 4 y = 3 }

	}
	support = {

	}
}

##### OOB #####
units = {
	division= {
		location = 1814	
		division_template = "40W"
		start_experience_factor = 0.3
		start_equipment_factor = 0.01
	}
}


##### Starting Production #####
instant_effect = {
	add_equipment_production = {
		equipment = {
			type = infantry_equipment_1
			creator = "NZL"
		}
		requested_factories = 1
		progress = 0.62
		efficiency = 100
	}
}